
AC/DC - Back In Black

Tom: A
		
E|-------x-----------x---------------------
B|-------x-----------x---------------------
G|-------x-----------x---------------------
D|-x-----------x---------------------------
A|-x-----------x---------------------------
E|-x-----------x---------------------------



Intro 2x: E5  D5  A5 (riff 1)
          E5  D5  A5 (riff 2)

   E5   D5       A5      (Riff 1)
E|----------------------|-3p0--------------
B|------3-3-3-----------|------3--0--------
G|------2-2-2----2-2-2--|------------2~p0--
D|------0-0-0----2-2-2--|------------------
A|-2-------------0-0-0--|------------------
E|-0--------------------|------------------



   E5   D5       A5      (Riff 2)
E|----------------------|------------------
B|------3-3-3-----------|------------------
G|------2-2-2----2-2-2--|------------------
D|------0-0-0----2-2-2--|------------------
A|-2-------------0-0-0--|-2---2---2---2----
E|-0--------------------|---4---5---6---7-



Primeira Parte:
 E5           D5                A5
Back in black,   I hit the sack
                             (riff 1)
I've been too long, I'm glad to be back
        E5           D5                A5
Yes I'm    let loose    from the noose
       (riff 2)
That's kept me hangin' about

           E5                D5
I've been livin' like a star
                            A5
'cause it's gettin' me high
                              (riff 1)
Forget the hearse, 'cause I never die
      E5             D5            A5
I got    nine lives,    cat's eyes
             (riff 2)
Abusing every one of them and running wild
Refrão:

   A5  E5  B5  A5  B5    A5  E5  B5  A5  B5
E|-----------------------------------------
B|-----------------------------------------
G|-----------------------------------------
D|-2-------4---2---4-----2-------4---2---4-
A|-0---2---2---0---2-----0---2---2---0---2-
E|-----0---------------------0-------------



   G5  D   A5       A5   G5  D   A5      A5
E|-3---2-----------------3---2-------------
B|-3---3-----------------3---3-------------
G|-0---2---2--------2----0---2---2-------2-
D|-0---0---2--------2----0---0---2-------2-
A|-x-------0--------0----x-------0-------0-
E|-3-----------3b~-------3-----------3b~---



   A5  E5  B5  A5  B5    A5  E5  B5  A5  B5
E|-----------------------------------------
B|-----------------------------------------
G|-----------------------------------------
D|-2-------4---2---4-----2-------4---2---4-
A|-0---2---2---0---2-----0---2---2---0---2-
E|-----0---------------------0-------------



   G5                     D
E|-3---3-3-3-3--3--3-3-3--2---2---2--------
B|-3---3-3-3-3--3--3-3-3--3---3---3--------
G|-0---0-0-0-0--0--0-0-0--2---2---2--------
D|-0---0-0-0-0--0--0-0-0--0---0---0--------
A|-x---------x-----------------------------
E|-3---------3-----------------------------



'Cause I'm back!
Yes, I'm back!
Well, I'm back! Yes, I'm back!
Well, I'm back, back
Well, I'm back in black
Yes, I'm back in black!

Segunda Parte:
 E5                 D5
Back in a band,  I got a Cadillac
 A5                               (riff 1)
Number one with a bullet, I'm a power pack
        E5           D5             A5
Yes I'm    in a band    with a gang
           (riff 2)
They gotta catch me if they want me to hang

            E5
'Cause I'm back on the track and
D5
I'm beatin' the flack
A5                                   (riff 1)
   Nobody's gonna get me on another trap
    E5                  D5
So look at me now, I'm just a makin' my pay
A5                        (riff 2)
   Don't try to push your luck, just get outta my way

Refrão:
'Cause I'm back! Yes, I'm back!
Well, I'm back! Yeah, I'm back!
Well, I'm back, back
Well, I'm back in black
Yes, I'm back in black!
Solo:

(Primeira Parte)
   P.M.

E|---------------------------------------------------
B|---------------------------------------------------
G|---------------------------------------------------
D|-------------------------------5--7--7h8p7p5-7-5~--
A|----7~~~----5~~----4~~---5--7----------------------
E|-0-------x------x----------------------------------



E|---------------------------------------------------
B|---------------------------------------------------
G|------------------------------/7~-7--7--7--7/9~~---
D|---------------------------------------------------
A|----7~~~----5~~----4~~-----------------------------
E|-0-------x------x-------x--------------------------


(Segunda Parte)

E|---------------------------------------------------
B|------8--------------8--10h11p10p8-10-8------------
G|-7/9-----97--7/9~~----------------------9--7--9~~-
D|---------------------------------------------------
A|---------------------------------------------------
E|---------------------------------------------------



E|-----------------10-----------10-------------------
B|-8-----8--10b12------10b12~------b12r10p8--10~~----
G|----9----------------------------------------------
D|---------------------------------------------------
A|---------------------------------------------------
E|---------------------------------------------------



E|-------------------------10------------------------
B|-8------8---10----10b12------10b12~~---------------
G|----9-9---9----9-----------------------------------
D|---------------------------------------------------
A|---------------------------------------------------
E|---------------------------------------------------


(Terceira Parte)

E|-------12-12-------12-----------12-----------------
B|-------------15b17-----15b17~~~----15-12-----------
G|-14b16-----------------------------------14b16r14--
D|---------------------------------------------------
A|---------------------------------------------------
E|---------------------------------------------------



E|---------------------------------------------------
B|-----------15--------15----------------------------
G|-12-14b16-----14b16------14b16r14p12-14----12-14~~-
D|----------------------------------------14---------
A|---------------------------------------------------
E|---------------------------------------------------



E|---------------------------------------------------
B|--------12----14----12--------15-------------------
G|--------12----14----12--14b16----b16r14p12-14------
D|-/14-14----14----14---------------------------14~--
A|---------------------------------------------------
E|---------------------------------------------------



E|-----------------12--------------------------------
B|-15b17~~---15b17----15-12--------------------------
G|--------------------------14-15-12-----------------
D|-----------------------------------14~~-----------
A|---------------------------------------------------
E|---------------------------------------------------


(Quarta Parte)

E|-0-0-0-0---0-0-0-0---0-0-0-0------------12---------
B|-5-3-3-5~--3-2-2-3~--2-0-0-2~--------12----15b17~~-
G|-------------------------------14b16---------------
D|---------------------------------------------------
A|---------------------------------------------------
E|---------------------------------------------------



E|-0-0-0-0---0-0-0-0---0-0-0-0-----------------------
B|-5-3-3-5~--3-2-2-3~--2-0-0-2~--12b13------12~------
G|-------------------------------12b13------12~------
D|--------------------------------------14-----------
A|---------------------------------------------------
E|---------------------------------------------------



Refrão:
Well, I'm back! Yes, I'm back!
Well, I'm back! Yes, I'm back!
Well, I'm back, back
Well, I'm back in black
Yes, I'm back in black!
Ponte:

E|---------------------------------------------------
B|---------------------------------------------------
G|---------------------------------------------------  (4x)
D|---------------------------------------------------
A|---5p4p2-4-------2-----2-----2---------------------
E|-0---------3~-------5-----6-----7~-----------------



E|---------------------------------------------------
B|---------------------------------------------------
G|---------------------------------------------------  (2x)
D|---5p4p2-4-------2-----2-----2---------------------
A|-0---------3~-------5-----6-----7~-----------------
E|---------------------------------------------------



E|---------------------------------------------------
B|---------------------------------------------------
G|---------------------------------------------------  (4x)
D|---------------------------------------------------
A|---5p4p2-4-------2-----2-----2---------------------
E|-0---------3~-------5-----6-----7~-----------------



Aw, yeah! Let's go!
Keep on goin'! Yeah, yeah!
Yeah, aw, yeah, yeah!
Here we go!

(Refrão)
Well, I'm back (I'm back!)
Back (well, I'm back!)
Back (I'm back!)
Back (I'm back!)
Back (I'm back!)
Back
Yes, back in black
Yes, I'm back in black
Outta sight!
Solo Final:

(Primeira Parte)

E|---------------------0-0-0-0---0-0-0-0---0-0-0-0---
B|-12b14r12-10~~-------5-3-3-5~--3-2-2-3~--2-0-0-2~--
G|---------------------------------------------------
D|---------------------------------------------------
A|---------------------------------------------------
E|---------------------------------------------------



E|---------------0-0-0-0----0-0-0-0---0-0-0-0--------
B|-12b13---------5-3-3-5~---3-2-2-3~--2-0-0-2~-------
G|-12b13---------------------------------------------
D|-------14~-----------------------------------------
A|---------------------------------------------------
E|---------------------------------------------------


(Segunda Parte)

E|----------12---------------------------------------
B|-15b17~------12-15b17~---15-15b17~~---15b17~-15----
G|---------------------------------------------------
D|---------------------------------------------------
A|---------------------------------------------------
E|---------------------------------------------------



E|------------------------12-------------------------
B|-b17--15--b17~~---15b17----15-12-------------------
G|---------------------------------14-15-12----------
D|-------------------------------------------14~~----
A|---------------------------------------------------
E|---------------------------------------------------



E|-15b17--15~~--15b17-15-12-15-12----12--------------
B|--------------------------------15----15-12-15-12--
G|---------------------------------------------------
D|---------------------------------------------------
A|---------------------------------------------------
E|---------------------------------------------------



E|---------------------------------------------------
B|----12---------------------------------------------
G|-14----14p12-15p12-14p10----12---------------------
D|-------------------------14----14p12----12b14r12~~-
A|-------------------------------------14------------
E|---------------------------------------------------



E|---------------------------------------------------
B|---------------------------------------------------
G|---------------------------------------------------
D|-12~~-12~~-12~~-12~~-12~~-12~~---------------------
A|---------------------------------------------------
E|---------------------------------------------------


(Terceira Parte)

E|---------------------------------------------------
B|-19b20-17----17~---19b20--17----17~~-19b20-b20-b20-
G|----------19-----------------19--------------------
D|---------------------------------------------------
A|---------------------------------------------------
E|---------------------------------------------------



E|---------------------------------------------------
B|-17-20-20-20--17-20-20-20--17-20-20-20--17-20-20-20
G|---------------------------------------------------
D|---------------------------------------------------
A|---------------------------------------------------
E|---------------------------------------------------



E|--------------------------22-------22-------22-----
B|-17-20-20-20--17-20-22b24----22b24----22b24--------
G|---------------------------------------------------
D|---------------------------------------------------
A|---------------------------------------------------
E|---------------------------------------------------


E|-------22-------22-------22-------22-------22-22---
B|-22b24----22b24----22b24----22b24----22b24---------
G|---------------------------------------------------
D|---------------------------------------------------
A|---------------------------------------------------
E|---------------------------------------------------


----------------- Acordes -----------------
A5 = 5 7 X X X X
B5 = X 2 4 X X X
D = X X 0 2 3 2
D5 = X X 0 2 3 X
E5 = X 7 9 X X X
G5 = 3 X 0 0 3 3
