
Janis Joplin - Move Over

Tom: E
		(Janis Joplin) 
 
=======================1ºVERSO============================

e|----------------------------------
B|----------------------------------
G|----------------------------------
D|---5b-5-3-5---5-3-----------------
A|-5----------5---------------------
E|----------------------------------

   You say that it's over baby, ohh,


e|----------------------------------
B|----------------------------------
G|---5/7-5---5-5--------------------
D|-5-------7-----53----------------
A|----------------------------------
E|----------------------------------

   You say that it's over now,


e|----------------------------------
B|----------------------------------
G|----------------------------------
D|-----3-5b-5-3---------------------
A|-5-5----------5-5-----------------
E|------------------5---------------

   But still you hang around me, come on,


e|----------------------------------
B|----------------------------------
G|----------------------------------
D|-------3--------------------------
A|-----3---5------------------------
E|-5-5------------------------------

   Won't you move over. 


e|----------------------------------
B|----------------------------------
G|----------------------------------
D|-----3-------------0-5br-3h5------
A|---3---5--------------------------
E|-5--------------------------------



=======================2ºVERSO============================

e|----------------------------------
B|----------------------------------
G|----------------------------------
D|-5b-5-3-5---5-3-------------------
A|----------5-----------------------
E|----------------------------------

   You know that I need a man, honey Lord,


e|----------------------------------
B|----------------------------------
G|---5/7-5---5-5--------------------
D|-5-------7-----53----------------
A|----------------------------------
E|----------------------------------

   You know that I need a man,


e|----------------------------------
B|----------------------------------
G|----------------------------------
D|-----3-5b-5-3--------------------------
A|-5-5----------5-5-3--------------------
E|--------------------5--------------

   But when I ask you to you just tell me


e|----------------------------------
B|----------------------------------
G|----------------------------------
D|-----3----------------------------
A|---3---5-5------------------------
E|-5--------------------------------

   That maybe you can.


e|----------------------------------
B|----------------------------------
G|----------------------------5-----
D|-----3------------------5h7---53-
A|---3---5------------5-8-----------
E|-5--------------------------------



=======================3ºVERSO============================ 

e|----------------------------------
B|----------------------------------
G|-------------------------5-7------
D|-5b-5-3-5---5-3----------3-5------
A|----------5-----------------------
E|----------------------------------

   Please don´t you do it to me babe, no!


e|----------------------------------
B|----------------------------------
G|---5/7-5---5-5-----------5-7--------
D|-5-------7-----53-------3-5--------
A|----------------------------------
E|----------------------------------

   Please don´t you do it to me baby,


e|----------------------------------
B|----------------------------------
G|----------------------------------
D|---5b-5-3-------------------------
A|-5--------5-3---------------------
E|--------------5-------------------

   Either take this love I offer


e|----------------------------------
B|----------------------------------
G|----------------------------------
D|-----3----------------------------
A|---3---5-5------------------------
E|-5--------------------------------

   Or honey let me be.


e|----------------------------------
B|----------------------------------
G|----------------------------------
D|-----3-------------0-5br-3h5------
A|---3---5--------------------------
E|-5--------------------------------



=======================4ºVERSO============================

e|----------------------------------
B|----------------------------------
G|-------------------------5-7--------
D|-5b-5-3-5---5-3----------3-5--------
A|----------5-----------------------
E|----------------------------------

   I ain't quite a ready for walking, no no no no,


e|----------------------------------
B|----------------------------------
G|-5/7-5---5-5-------------5-7--------
D|-------7-----53---------3-5--------
A|----------------------------------
E|----------------------------------

   I ain't quite a ready for walking,


e|----------------------------------
B|----------------------------------
G|----------------------------------
D|---5b-5-3-------------------------
A|-5--------5-3---------------------
E|--------------5-------------------

   And what you gonna do with your life,

   Life all just dangling ?



                       D  D# E
e|----------------------------------
B|----------------------------------
G|----------------------------------
D|-----3--------------7--8--9-------
A|---3---5------------5--6--7-------
E|-5--------------------------------

                      Oh yeah,

E        
..make up your mind, honey,
G
  You're playing with me, hey hey hey,
E
  Make up your mind, darling,
G
  You're playing with me, come on now!
A
  Now either be my loving man,
        C                     B        A# A
I said-a let me honey, let me be, yeah!

(Guitarra SOLO) 

==================================== 
Obs.:Use os mesmos licks dos primeiros versos p/ tocar estes próximos..
====================================

You say that it's over, baby, no,
You say that it's over now,
But still you hang around me, come on
Won't you move over.
 
You know that I need a man, honey, I told you so.
You know that I need a man,
But when I ask you to you just tell me
That maybe you can.
 
Hey! Please don't you do it to me, babe, no!
Please don't you do it to me baby,
Either take this love I offer,
Honey let me be.
 
(RIFF FINAL):

   A   F D  
e|------------------------
B|------------------------
G|------------------------
D|-----3------------------
A|---3---5----------------
E|-5----------------------


========(o “RIFF FINAL” é repetido até acabar a música)========

I said won't you, won't you let me be ?
Honey, you're teasing me.
Yeah, you're playing with my heart, dear,
I believe you're toying with my affections, honey.
 
I can't take it no more baby,
And furthermore, I don't intend to.
I'm just tired of hanging from the end of a string, honey,
You expect me to fight like a goddamned mule.
Wah, wah, wah, wah, honey...
..

----------------- Acordes -----------------
A = X 0 2 2 2 0
A# = X 1 3 3 3 1
B = X 2 4 4 4 2
C = X 3 2 0 1 0
D = X X 0 2 3 2
D# = X 6 5 3 4 3
E = 0 2 2 1 0 0
F = 1 3 3 2 1 1
G = 3 2 0 0 0 3
