
Kaiser Chiefs - Ruby

Tom: G#
		Intro:
4x

E|----------------------------------|
B|-----9p(8)--8---------------------|
G|-----8------8---------------------|
D|-----8------8---------------------|
A|----------------------------------|
E|----------------------------------|


2x                 

E|-----------------------------------------------------------------------|
B|-------------------8-8---8-8-------------------------------------------|
G|-------------------8-8---8-8-------------------------------------------|
D|-------------------8-8---8-8------------------1-1----------------------|
A|--1--1-4-----------------------1--1-4-------------4-4--3-3-1-----------|
E|----------1--1-4---------------------1--1-4----------------------------|


1x            Essa é a saidera quando vai entrar para a música

E|------------------------------------|
B|------------------------------------|
G|------------------------------------|
D|------------------------------------|
A|-1----------------------------------|
E|----4-4-3-3-1-----------------------|



        Bbm
Let it never be said,
     Fm
That romance is dead,
              Cm
Cause there's so little else,
     Eb
Occupying my head,
         Bbm
There is nothing I need,
           Fm
Except the function to breath,
        Cm
But I'm not really fussed,
        Eb
Doesn't matter to me...

                         Bbm, Fm, Eb
Ruby, Ruby, Ruby, Ruby!    ( ahh ahhh ...)
                          Bbm, Fm, Eb
Do ya, do ya, do ya, do ya!   ( ahh ahhh ...)  

A partir desta parte do refrão, a guitarra acompanha fazendo isso:
E|----------------------------------------------------------------------|
B|----------------------------------------------------------------------|
G|----------------------------------------------------------8-----------|
D|---------------1-1----------------------------------------------------|
A|---1--1-4-------------4-4--3-3-1--------1--1-4------------6-----------|
E|--------1--1-4-------------------------------1--1-4-------------------|                                                

Know what you're doing doing to me!?  ( ahh ahhh ...)                            
Ruby, Ruby, Ruby, Ruby!  ( ahh ahhh ...)

       Bbm
Due to lack of interest,
      Fm
Tomorrow s cancelled,
         Cm
Let the clocks be reset,
        Eb
And the pendulums held,
      Bbm
Cause nothing at all,
            Fm
Except the space in-between,
        Cm
Finding out what you're called,
       Eb
And repeating your name...

                         Bbm, Fm, Eb
Ruby, Ruby, Ruby, Ruby!    ( ahh ahhh ...)
                          Bbm, Fm, Eb
Do ya, do ya, do ya, do ya!   ( ahh ahhh ...)  
 
A partir desta parte do refrão, a guitarra acompanha fazendo isso:
E|----------------------------------------------------------------------------|
B|----------------------------------------------------------------------------|
G|----------------------------------------------------------8----9----10------|
D|---------------1-1----------------------------------------------------------|
A|---1--1-4-------------4-4--3-3-1--------1--1-4------------6----7----8-------|
E|--------1--1-4-------------------------------1--1-4-------------------------|                                                

Know what you're doing doing to me!?  ( ahh ahhh ...)                            
Ruby, Ruby, Ruby, Ruby!  ( ahh ahhh ...)

Fm
Could it be, could it be,
            C#
That you're joking with me,
        Bbm
And you don't really see,
         Eb E 
You and me...

Fm
Could it be, could it be,
            C#
That you're joking with me,
        Bbm
And you don't really see,
         Eb E   Fm
You and me...

Solo
2x

E|-----------------------------------------------------------------------------|
B|-----------------------------------------------------------------------------|
G|--5-3-5--5-3-5------3-3h-5-3-----------3-3h-5-3---------3-3h-5-3-4-5---------|
D|------------------6----------6--3----6-----------6-3--6----------------------|
A|-----------------------------------------------------------------------------|
E|-----------------------------------------------------------------------------|


                         Bbm, Fm, Eb
Ruby, Ruby, Ruby, Ruby!    ( ahh ahhh ...)
                          Bbm, Fm, Eb
Do ya, do ya, do ya, do ya!   ( ahh ahhh ...)  

Desta parte a guitarra toca assim, ...repete o refrão tocando desta forma      .     (final)
E|----------------------------------------------------------------------------|-------------|
B|----------------------------------------------------------------------------|-------------|
G|----------------------------------------------------------------------------|-8--9--10----|
D|---------------1-1-------------------------------------1-1------------------|-------------|
A|---1--1-4-------------4-4--3-3-1--------1--1-4--------------4-4--3-3-1------|-6--7--8-----|
E|--------1--1-4-------------------------------1--1-4-------------------------|-------------|                                                

Know what you're doing doing to me!?  ( ahh ahhh ...)                            
Ruby, Ruby, Ruby, Ruby!  ( ahh ahhh ...)




----------------- Acordes -----------------
Bbm = X 1 3 3 2 1
C# = X 4 6 6 6 4
Cm = X 3 5 5 4 3
E = 0 2 2 1 0 0
Eb = X 6 5 3 4 3
Fm = 1 3 3 1 1 1
