
Kings Of Leon - Molly`s Chambers

Tom: B
		Intro/Verso(Riff 1):

e|--------------
B|--------------
G|--------------
D|-------------- repita isso mais ou menos 25x
A|-4-4---4---4--
E|-2-2-0-2-0-2-0



Riff 1

Free- is all that she could bleed
That´s why´ll she´ll never stay
White- bare naked in the night
Just lookin´ for some play
Just another girl that wants to rule the world
Any time or place
And when she gets into your head
You know she´s there to stay

Chorus:

e|-7-7-7-7-7-7-7-7--5-5-5-5-5-5-5-5-|----------------|-7-7-7-7-7-7-7-7--10-10-10-10-10-10-10-10
B|-7-7-7-7-7-7-7-7--5-5-5-5-5-5-5-5-|----------------|-7-7-7-7-7-7-7-7--10-10-10-10-10-10-10-10
G|-8-8-8-8-8-8-8-8--6-6-6-6-6-6-6-6-|----------------|-8-8-8-8-8-8-8-8--11-11-11-11-11-11-11-11
D|-9-9-9-9-9-9-9-9--7-7-7-7-7-7-7-7-|----------------|-9-9-9-9-9-9-9-9--12-12-12-12-12-12-12-12
A|-9-9-9-9-9-9-9-9--7-7-7-7-7-7-7-7-|4-4---4---4---x2|-9-9-9-9-9-9-9-9--12-12-12-12-12-12-12-12
E|-7-7-7-7-7-7-7-7--5-5-5-5-7-7-7-7-|2-2-0-2-0-2-0---|-7-7-7-7-7-7-7-7--10-10-10-10-10-10-10-10


You want it
She´s got it
Molly´s Chambers gonna change your mind
She´s got your
Your pistol


Verso:

Guitar 1:
e|--------------
B|--------------
G|--------------
D|-------------- 
A|-4-4---4---4--
E|-2-2-0-2-0-2-0

Guitar 2:

e|---------------
B|-7--5-7-5-7-5-7
G|---------------
D|--------------- intercala com guitar 1, toca na perte em que o vocal não canta.
A|---------------
E|---------------


Slow- She´s burnin´ in your soul
With whispers in your ear
It´s okay I´ll give it anyway
Just get me out of here
You´ll plead- you´ll get down on your knees
For just another taste
And when you think she´s let you in
That´s when she fades away

Chorus:

Guitar 1:

e|-7-7-7-7-7-7-7-7--5-5-5-5-5-5-5-5-|----------------|-7-7-7-7-7-7-7-7--10-10-10-10-10-10-10-10
B|-7-7-7-7-7-7-7-7--5-5-5-5-5-5-5-5-|----------------|-7-7-7-7-7-7-7-7--10-10-10-10-10-10-10-10
G|-8-8-8-8-8-8-8-8--6-6-6-6-6-6-6-6-|----------------|-8-8-8-8-8-8-8-8--11-11-11-11-11-11-11-11
D|-9-9-9-9-9-9-9-9--7-7-7-7-7-7-7-7-|----------------|-9-9-9-9-9-9-9-9--12-12-12-12-12-12-12-12
A|-9-9-9-9-9-9-9-9--7-7-7-7-7-7-7-7-|4-4---4---4---x2|-9-9-9-9-9-9-9-9--12-12-12-12-12-12-12-12
E|-7-7-7-7-7-7-7-7--5-5-5-5-7-7-7-7-|2-2-0-2-0-2-0---|-7-7-7-7-7-7-7-7--10-10-10-10-10-10-10-10


e|--------------
B|--------------
G|--------------
D|-------------- 4x
A|-4-4---4---4-- 
E|-2-2-0-2-0-2-0

Guitar 2:

e|----------------------------------|----------------|-----------------------------------------
B|----------------------------------|-7--5-7-5-7-5-7-|-----------------------------------------
G|----------------------------------|----------------|-----------------------------------------
D|-9-9-9-9-9-9-9-9--7-7-7-7-7-7-7-7-|----------------|-9-9-9-9-9-9-9-9--12-12-12-12-12-12-12-12
A|-9-9-9-9-9-9-9-9--7-7-7-7-7-7-7-7-|--------------x2|-9-9-9-9-9-9-9-9--12-12-12-12-12-12-12-12
E|-7-7-7-7-7-7-7-7--5-5-5-5-7-7-7-7-|----------------|-7-7-7-7-7-7-7-7--10-10-10-10-10-10-10-10



e|---------------
B|-7--5-7-5-7-5-7
G|---------------
D|--------------- 4x
A|---------------
E|---------------


You want it
She´s got it
Molly´s Chambers gonna change your mind
She´s got your
Your pistol

Solo:
Guitar 1:
(B D F#)x3

Guitar 2: 

e|---------------------------------------------------------------------------|
B|-17b-17b-17b-17b-17b-14-----------------17-17b-----17-17b----17-17b----17b-|
G|------------------------16b-14-14-14-16----16b--18----16b-18----16b-14-16b-|
D|---------------------------------------------------------------------------|
A|---------------------------------------------------------------------------|
E|---------------------------------------------------------------------------|



e|---------------------------------------------------------------------------|
B|-4b6r4---------4b6r4---------4b6r4-4b6r4---------4b6-4b6-4b6-4b6-4b6-4b6r4-|
G|-4b6r4-2---2-4-4b6r4-2---2-4-4b6r4-4b6r4-2---2-4-4b6-4b6-4b6-4b6-4b6-4b6r4-|
D|---------4-------------4-------------------4-------------------------------|
A|---------------------------------------------------------------------------|
E|---------------------------------------------------------------------------|



You want it
She´s got it
Molly´s Chambers gonna change your mind
She´s got your
Your pistol

Final chorus:

Guitar 1:

e|--------------
B|--------------
G|--------------
D|-------------- 2x
A|-4-4---4---4-- 
E|-2-2-0-2-0-2-0


e|-7-7-7-7-7-7-7-7--10-10-10-10-10-10-10-10|   |-----------------|
B|-7-7-7-7-7-7-7-7--10-10-10-10-10-10-10-10|   |-----------------|
G|-8-8-8-8-8-8-8-8--11-11-11-11-11-11-11-11|   |-----------------|
D|-9-9-9-9-9-9-9-9--12-12-12-12-12-12-12-12|   |-----------------|2x
A|-9-9-9-9-9-9-9-9--12-12-12-12-12-12-12-12|   |-4-4---4---4-----|
E|-7-7-7-7-7-7-7-7--10-10-10-10-10-10-10-10|   |-2-2-0-2-0-2-0---|



e|-7-7-7-7-7-7-7-7--5-5-5-5-5-5-5-5-|----------------|-7-7-7-7-7-7-7-7--10-10-10-10-10-10-10-10
B|-7-7-7-7-7-7-7-7--5-5-5-5-5-5-5-5-|----------------|-7-7-7-7-7-7-7-7--10-10-10-10-10-10-10-10
G|-8-8-8-8-8-8-8-8--6-6-6-6-6-6-6-6-|----------------|-8-8-8-8-8-8-8-8--11-11-11-11-11-11-11-11
D|-9-9-9-9-9-9-9-9--7-7-7-7-7-7-7-7-|----------------|-9-9-9-9-9-9-9-9--12-12-12-12-12-12-12-12
A|-9-9-9-9-9-9-9-9--7-7-7-7-7-7-7-7-|4-4---4---4---x2|-9-9-9-9-9-9-9-9--12-12-12-12-12-12-12-12
E|-7-7-7-7-7-7-7-7--5-5-5-5-7-7-7-7-|2-2-0-2-0-2-0---|-7-7-7-7-7-7-7-7--10-10-10-10-10-10-10-10


Guitar 2:

e|----------------|-----------------------------------------|   |----------------|
B|-7--5-7-5-7-5-7-|-----------------------------------------|   |-7--5-7-5-7-5-7-|
G|----------------|-----------------------------------------|   |----------------|2x
D|----------------|-9-9-9-9-9-9-9-9--12-12-12-12-12-12-12-12|   |----------------|
A|--------------x2|-9-9-9-9-9-9-9-9--12-12-12-12-12-12-12-12|   |----------------|
E|----------------|-7-7-7-7-7-7-7-7--10-10-10-10-10-10-10-10|   |----------------|


e|----------------------------------|----------------|-----------------------------------------
B|----------------------------------|-7--5-7-5-7-5-7-|-----------------------------------------
G|----------------------------------|----------------|-----------------------------------------
D|-9-9-9-9-9-9-9-9--7-7-7-7-7-7-7-7-|----------------|-9-9-9-9-9-9-9-9--12-12-12-12-12-12-12-12
A|-9-9-9-9-9-9-9-9--7-7-7-7-7-7-7-7-|--------------x2|-9-9-9-9-9-9-9-9--12-12-12-12-12-12-12-12
E|-7-7-7-7-7-7-7-7--5-5-5-5-7-7-7-7-|----------------|-7-7-7-7-7-7-7-7--10-10-10-10-10-10-10-10

----------------- Acordes -----------------
B = X 2 4 4 4 2
D = X X 0 2 3 2
F# = 2 4 4 3 2 2
